<svg width="167" height="227" viewBox="0 0 167 227" fill="none" xmlns="http://www.w3.org/2000/svg">
<g clip-path="url(#clip0)">
<rect width="166.38" height="225.91" transform="translate(0.25 0.599609)" fill="white" fill-opacity="0.01"/>
<path d="M116.65 167.18L108.81 159.59L98.26 170.49L106.1 178.08C108.1 180.02 109.51 182.48 110.17 185.19C110.83 187.9 112.24 190.36 114.24 192.3L146.04 223.09C150.86 227.75 158.55 227.63 163.21 222.81C167.87 217.99 167.75 210.3 162.93 205.64L131.13 174.85C129.13 172.91 126.62 171.58 123.89 171.01C121.16 170.45 118.65 169.12 116.65 167.18Z" fill="url(#paint0_linear)"/>
<path d="M123.57 170.94C120.97 170.34 118.57 169.04 116.65 167.18L114.26 164.87C111.25 161.96 106.45 162.03 103.53 165.04C100.62 168.05 100.69 172.85 103.7 175.77L106.09 178.08C108.01 179.94 109.38 182.28 110.07 184.86C112.64 182.91 115.08 180.75 117.37 178.39C119.64 176.05 121.71 173.55 123.57 170.94Z" fill="#B3BAC5"/>
<path d="M64.7101 191.74C47.7601 192.01 31.7201 185.67 19.5401 173.88C-5.59995 149.55 -6.24995 109.3 18.0801 84.1601C29.8701 71.9801 45.7001 65.1201 62.6501 64.8501C79.6001 64.5801 95.6401 70.9201 107.82 82.7101C120 94.5001 126.86 110.33 127.13 127.27C127.4 144.21 121.06 160.26 109.27 172.44C97.48 184.61 81.6501 191.47 64.7101 191.74ZM62.8901 79.9901C49.9901 80.2001 37.94 85.4201 28.9601 94.6901C10.43 113.83 10.9301 144.48 30.0701 163.01C39.34 171.99 51.5601 176.81 64.4601 176.61C77.3601 176.4 89.41 171.18 98.3901 161.91C107.37 152.64 112.19 140.42 111.98 127.52C111.77 114.62 106.55 102.57 97.2801 93.5901C88.0101 84.6101 75.8 79.7801 62.8901 79.9901Z" fill="url(#paint1_linear)"/>
<path d="M86.9299 113.359L80.4299 106.979C79.3099 105.879 77.5199 105.899 76.4299 107.019L64.0199 119.659L51.3799 107.249C50.2599 106.149 48.4699 106.169 47.3799 107.289L40.9999 113.789C39.8999 114.909 39.9199 116.699 41.0399 117.789L53.6799 130.199L41.2699 142.839C40.1699 143.959 40.1899 145.749 41.3099 146.839L47.8099 153.219C48.9299 154.319 50.7199 154.299 51.8099 153.179L64.2199 140.539L76.8599 152.949C77.9799 154.049 79.7699 154.029 80.8599 152.909L87.2399 146.409C88.3399 145.289 88.3199 143.499 87.1999 142.409L74.5499 129.999L86.9599 117.359C88.0599 116.249 88.0499 114.459 86.9299 113.359Z" fill="#C1C7D0"/>
<path d="M71.3699 28.3492L61.7699 1.02922C61.5499 0.389218 60.6199 0.499218 60.5399 1.16922L57.4399 27.6492L51.3199 26.9292C50.8499 26.8792 50.4899 27.3292 50.6499 27.7692L60.2499 55.0892C60.4699 55.7292 61.3999 55.6192 61.4799 54.9492L64.5799 28.4692L70.6999 29.1892C71.1599 29.2492 71.5199 28.7892 71.3699 28.3492Z" fill="#C1C7D0"/>
<path d="M41.16 45.7097L29.23 37.5597C28.98 37.3897 28.68 37.6697 28.83 37.9297L35.39 49.4597L32.71 50.9897C32.53 51.0897 32.52 51.3497 32.69 51.4597L44.62 59.6097C44.87 59.7797 45.17 59.4997 45.02 59.2397L38.46 47.7097L41.14 46.1797C41.32 46.0797 41.33 45.8297 41.16 45.7097Z" fill="#C1C7D0"/>
<path d="M84.27 59.1302C84.16 59.1302 84.06 59.1102 83.95 59.0802C83.46 58.9202 83.18 58.4102 83.29 57.9102C83.04 57.3702 81.23 56.2602 80.13 55.5902C77.65 54.0702 75.51 52.7602 76.09 51.0302C76.67 49.2902 79.17 49.5402 82.06 49.8202C83.23 49.9402 85.12 50.1202 85.82 49.9302C85.37 49.3502 83.76 48.3702 82.75 47.7502C80.27 46.2302 78.13 44.9302 78.71 43.1902C79.29 41.4502 81.79 41.7002 84.68 41.9802C85.85 42.1002 87.73 42.2802 88.44 42.0902C87.99 41.5102 86.38 40.5302 85.37 39.9102C82.89 38.3902 80.75 37.0902 81.33 35.3502C81.91 33.6202 84.41 33.8602 87.3 34.1402C88.58 34.2602 90.69 34.4702 91.22 34.1902C91.43 33.7302 91.96 33.4902 92.45 33.6602C92.97 33.8402 93.26 34.4002 93.08 34.9302C92.5 36.6602 90 36.4202 87.11 36.1302C85.94 36.0102 84.05 35.8302 83.35 36.0202C83.8 36.6002 85.41 37.5802 86.42 38.2002C88.9 39.7202 91.04 41.0202 90.46 42.7602C89.88 44.4902 87.38 44.2502 84.49 43.9702C83.32 43.8502 81.43 43.6702 80.73 43.8602C81.18 44.4402 82.79 45.4202 83.8 46.0402C86.28 47.5602 88.42 48.8602 87.84 50.6002C87.26 52.3402 84.76 52.0902 81.87 51.8102C80.7 51.6902 78.81 51.5102 78.11 51.7002C78.56 52.2802 80.17 53.2702 81.18 53.8802C83.66 55.4002 85.8 56.7102 85.22 58.4402C85.08 58.8602 84.69 59.1302 84.27 59.1302Z" fill="#DFE1E5"/>
<path d="M98.43 64.2494C98.08 64.2494 97.74 64.0694 97.56 63.7394C96.46 61.7994 95.22 59.5994 96.54 58.3594C97.87 57.1194 99.99 58.5194 102.24 60.0094C103.19 60.6394 104.72 61.6494 105.4 61.7894C105.31 61.1094 104.4 59.5094 103.84 58.5194C102.51 56.1794 101.25 53.9694 102.58 52.7194C103.91 51.4794 106.03 52.8794 108.28 54.3694C109.3 55.0494 110.99 56.1594 111.57 56.1594C111.57 56.1594 111.57 56.1594 111.58 56.1594C111.98 55.8494 112.57 55.8894 112.92 56.2694C113.3 56.6694 113.28 57.3094 112.87 57.6794C111.54 58.9294 109.42 57.5194 107.17 56.0294C106.22 55.3994 104.69 54.3894 104.01 54.2494C104.1 54.9294 105.01 56.5294 105.57 57.5194C106.9 59.8594 108.16 62.0694 106.83 63.3194C105.5 64.5594 103.38 63.1594 101.13 61.6694C100.18 61.0394 98.65 60.0294 97.98 59.8894C98.07 60.5694 98.98 62.1794 99.3 62.7394C99.57 63.2194 99.4 63.8294 98.92 64.0994C98.77 64.2094 98.6 64.2494 98.43 64.2494Z" fill="#DFE1E5"/>
<path d="M24.7199 68.1993C24.6399 68.1993 24.5699 68.1993 24.4899 68.1893C22.6799 67.9693 22.3999 65.4393 22.0999 62.7693C21.9699 61.6393 21.7699 59.8093 21.4399 59.2093C20.9699 59.7193 20.3299 61.4393 19.9399 62.5093C18.9999 65.0393 18.0999 67.4193 16.3099 67.1993C14.4999 66.9793 14.2199 64.4493 13.9099 61.7793C13.7699 60.5593 13.5399 58.5293 13.1699 58.0993C12.6699 57.9893 12.3299 57.5193 12.3899 56.9993C12.4599 56.4493 12.9499 56.0693 13.4999 56.1293C15.3099 56.3493 15.5899 58.8793 15.8999 61.5593C16.0299 62.6893 16.2299 64.5193 16.5699 65.1193C17.0399 64.6093 17.6799 62.8893 18.0699 61.8193C19.0099 59.2993 19.8999 56.9293 21.6999 57.1293C23.5099 57.3493 23.7899 59.8793 24.0999 62.5593C24.2299 63.6893 24.4299 65.5093 24.7599 66.1193C25.2199 65.6093 25.8699 63.8793 26.0999 63.2693C26.2899 62.7493 26.8699 62.4893 27.3899 62.6793C27.9099 62.8693 28.1699 63.4493 27.9799 63.9693C27.1999 65.9493 26.3599 68.1993 24.7199 68.1993Z" fill="#DFE1E5"/>
</g>
<defs>
<linearGradient id="paint0_linear" x1="124.57" y1="202.645" x2="142.252" y2="184.963" gradientUnits="userSpaceOnUse">
<stop stop-color="#B3BAC5"/>
<stop offset="1" stop-color="#DFE1E5" stop-opacity="0.5"/>
</linearGradient>
<linearGradient id="paint1_linear" x1="18.8065" y1="173.166" x2="108.549" y2="83.4242" gradientUnits="userSpaceOnUse">
<stop offset="0.5572" stop-color="#C1C7D0"/>
<stop offset="0.966" stop-color="#E9EBEF" stop-opacity="0.5"/>
</linearGradient>
<clipPath id="clip0">
<rect width="166.38" height="225.91" fill="white" transform="translate(0.25 0.599609)"/>
</clipPath>
</defs>
</svg>
